func_start,0,a,main
other,0,#include <stdio.h>,_
other,0,int main(void),_
other,0,u,_
other,0,int i;,_
bloop_start,0,for (i = 0; i <= 100; i++){,_
other,1,int FizzBuzz = i % 15;,_
other,1,int Fizz = i % 3;,_
other,1,int Buzz = i % 5;,_
branch_start,1,if (FizzBuzz == 0 && i != 0){,_
other,2,printf("FizzBuzz: %d\n", i);,_
branch_else,1,}else if (Fizz == 0 && i != 0){,_
branch_start,2,}else if (Fizz == 0 && i != 0){,_
other,3,printf("Fizz: %d\n", i);,_
branch_else,2,}else if (Buzz == 0 && i != 0){,_
branch_start,3,u,_
other,4,printf("Buzz: %d\n", i);,_
branch_else,3,}else{,_
other,4,u,_
branch_end,3,_,_
branch_end,2,_,_
branch_end,2,_,_
branch_end,1,_,_
bloop_end,0,_,_
other,0,return0;,_
other,0,},_
return,0,none,main
func_end,0,user_func,main
